<?xml version="1.0" encoding="utf-8"?>
<!-- Generator: Adobe Illustrator 15.1.0, SVG Export Plug-In . SVG Version: 6.00 Build 0)  -->
<!DOCTYPE svg PUBLIC "-//W3C//DTD SVG 1.1//EN" "http://www.w3.org/Graphics/SVG/1.1/DTD/svg11.dtd">
<svg version="1.1" id="Layer_1" xmlns="http://www.w3.org/2000/svg" xmlns:xlink="http://www.w3.org/1999/xlink" x="0px" y="0px"
	 width="32px" height="32px" viewBox="0 0 32 32" enable-background="new 0 0 32 32" xml:space="preserve">
<g>
	<path fill="#F2F2F2" d="M30.881,27.646H17.941c-0.358,0-0.646-0.29-0.646-0.646c0-0.36,0.288-0.648,0.646-0.648h12.293V5.648
		H17.941c-0.358,0-0.646-0.288-0.646-0.646s0.288-0.649,0.646-0.649h12.939c0.358,0,0.646,0.291,0.646,0.649V27
		C31.527,27.356,31.239,27.646,30.881,27.646z"/>
	<polygon opacity="0.2" fill="#F2F2F2" enable-background="new    " points="0.472,3.848 0.472,4.172 18.588,0.796 18.588,0.472 	
		"/>
	<rect x="17.295" y="6.943" fill="#F2F2F2" width="5.176" height="2.588"/>
	<rect x="23.764" y="6.943" fill="#F2F2F2" width="5.176" height="2.588"/>
	<rect x="17.295" y="10.824" fill="#F2F2F2" width="5.176" height="2.588"/>
	<rect x="23.764" y="10.824" fill="#F2F2F2" width="5.176" height="2.588"/>
	<rect x="17.295" y="14.706" fill="#F2F2F2" width="5.176" height="2.589"/>
	<rect x="23.764" y="14.706" fill="#F2F2F2" width="5.176" height="2.589"/>
	<rect x="17.295" y="18.588" fill="#F2F2F2" width="5.176" height="2.588"/>
	<rect x="23.764" y="18.588" fill="#F2F2F2" width="5.176" height="2.588"/>
	<rect x="17.295" y="22.471" fill="#F2F2F2" width="5.176" height="2.586"/>
	<rect x="23.764" y="22.471" fill="#F2F2F2" width="5.176" height="2.586"/>
	<polygon opacity="0.1" fill="#F2F2F2" enable-background="new    " points="0.472,28.152 18.588,31.527 18.588,31.203 
		0.472,27.828 	"/>
	<path fill="#F2F2F2" d="M0.472,3.848v24.304l18.116,3.375V0.472L0.472,3.848z M12.965,21.999l-0.038,0.02l-2.258-0.16l-1.786-3.215
		l-1.649,2.971l-2.135-0.155l2.675-4.812l-2.675-4.812l2.135-0.153l1.649,2.967l1.786-3.212l2.258-0.161l0.038,0.021l-2.971,5.351
		L12.965,21.999z"/>
</g>
</svg>
